{
    "href": "https://api.spotify.com/v1/shows/1EPoDsUI8BnhLbdERd5Y4w/episodes?offset=0&limit=5",
    "items": [
        {
            "audio_preview_url": "https://podz-content.spotifycdn.com/audio/clips/4lc7llrROtyAJtLmTvufjN/clip_475529_535529.mp3",
            "description": "Cubfan Can Do It All! | Imp And Skizz Podcast (Ep116)  Check out Cub's Socials! YouTube: https://www.youtube.com/@cubfan Twitter: https://x.com/cubfan135 Twitch: https://www.twitch.tv/cubfan135  ►Get Imp & Skizz Podcast Merch! - https://impandskizz.com  ►Want to be a part of the live pre-show? Become a sponsor over at Glimpse to join us before we jump into our recording. Hang out with us while we dial in our equipment and be the first to find out what that day's recordings are going to be about! Perhaps even offer some of your own insight before we get started! https://www.glimpse.me/impandskizz  ►Listen to this podcast on all major podcast platforms: https://www.buzzsprout.com/2030783/15245640  ►Subscribe to the new Imp And Skizz Podcast channel on YouTube: https://www.youtube.com/channel/UCenRWz4J0b46-z41N-nly1A  ►OUR LINKS! Imp And Skizz YouTube Channel: https://www.youtube.com/impandskizz Imp And Skizz Instagram: https://www.instagram.com/imp.and.skizz/ Imp And Skizz Twitter: https://twitter.com/impandskizz Impulse's YouTube Channel: https://www.youtube.com/impulsesv Skizzleman's YouTube Channel: https://www.youtube.com/mcskizzleman   ►SPECIAL THANKS TO \"Imp&Skizz Podcast\" jingle by Richard Thornton: @RichardThornton  Podcast Logo by jsonlart: https://twitter.com/jasonlicariart  ",
            "duration_ms": 3234282,
            "explicit": false,
            "external_urls": {
                "spotify": "https://open.spotify.com/episode/0N8lU9Xeq5Da9nbw6sIBot"
            },
            "href": "https://api.spotify.com/v1/episodes/0N8lU9Xeq5Da9nbw6sIBot",
            "html_description": "<p>Cubfan Can Do It All! | Imp And Skizz Podcast (Ep116)<br/>Check out Cub&#39;s Socials!<br/>YouTube: https://www.youtube.com/&#64;cubfan<br/>Twitter: https://x.com/cubfan135<br/>Twitch: https://www.twitch.tv/cubfan135<br/>►Get Imp &amp; Skizz Podcast Merch! - https://impandskizz.com<br/>►Want to be a part of the live pre-show? Become a sponsor over at Glimpse to join us before we jump into our recording. Hang out with us while we dial in our equipment and be the first to find out what that day&#39;s recordings are going to be about! Perhaps even offer some of your own insight before we get started!<br/>https://www.glimpse.me/impandskizz<br/>►Listen to this podcast on all major podcast platforms:<br/>https://www.buzzsprout.com/2030783/15245640<br/>►Subscribe to the new Imp And Skizz Podcast channel on YouTube: https://www.youtube.com/channel/UCenRWz4J0b46-z41N-nly1A<br/>►OUR LINKS!<br/>Imp And Skizz YouTube Channel: https://www.youtube.com/impandskizz<br/>Imp And Skizz Instagram: https://www.instagram.com/imp.and.skizz/<br/>Imp And Skizz Twitter: https://twitter.com/impandskizz<br/>Impulse&#39;s YouTube Channel: https://www.youtube.com/impulsesv<br/>Skizzleman&#39;s YouTube Channel: https://www.youtube.com/mcskizzleman<br/>►SPECIAL THANKS TO<br/>&#34;Imp&amp;Skizz Podcast&#34; jingle by Richard Thornton: &#64;RichardThornton <br/>Podcast Logo by jsonlart: https://twitter.com/jasonlicariart<br/></p>",
            "id": "0N8lU9Xeq5Da9nbw6sIBot",
            "images": [
                {
                    "height": 640,
                    "url": "https://i.scdn.co/image/ab6765630000ba8a11dcdcdac4836ef09db5f3c7",
                    "width": 640
                },
                {
                    "height": 300,
                    "url": "https://i.scdn.co/image/ab67656300005f1f11dcdcdac4836ef09db5f3c7",
                    "width": 300
                },
                {
                    "height": 64,
                    "url": "https://i.scdn.co/image/ab6765630000f68d11dcdcdac4836ef09db5f3c7",
                    "width": 64
                }
            ],
            "is_externally_hosted": false,
            "is_playable": true,
            "language": "en",
            "languages": [
                "en"
            ],
            "name": "Cubfan Can Do It All! | Imp And Skizz Podcast (Ep116)",
            "release_date": "2024-10-25",
            "release_date_precision": "day",
            "type": "episode",
            "uri": "spotify:episode:0N8lU9Xeq5Da9nbw6sIBot"
        },
        {
            "audio_preview_url": "https://podz-content.spotifycdn.com/audio/clips/3Hl76WPPaSeJiuSRGVPf02/clip_642450_708500.mp3",
            "description": "PearlescentMoon On The Show! | Imp And Skizz Podcast (Ep115)   Check out Pearl's Socials! YouTube: https://www.youtube.com/@UC1GJ5aeqpEWklMBQ3oXrPQQ  Twitter: https://x.com/PearlescentMoon Twitch: https://www.twitch.tv/pearlescentmoon  ►Get Imp & Skizz Podcast Merch! - https://impandskizz.com  ►Want to be a part of the live pre-show? Become a sponsor over at Glimpse to join us before we jump into our recording. Hang out with us while we dial in our equipment and be the first to find out what that day's recordings are going to be about! Perhaps even offer some of your own insight before we get started! https://www.glimpse.me/impandskizz  ►Listen to this podcast on all major podcast platforms: https://www.buzzsprout.com/2030783/15245640  ►Subscribe to the new Imp And Skizz Podcast channel on YouTube: https://www.youtube.com/channel/UCenRWz4J0b46-z41N-nly1A  ►OUR LINKS! Imp And Skizz YouTube Channel: https://www.youtube.com/impandskizz Imp And Skizz Instagram: https://www.instagram.com/imp.and.skizz/ Imp And Skizz Twitter: https://twitter.com/impandskizz Impulse's YouTube Channel: https://www.youtube.com/impulsesv Skizzleman's YouTube Channel: https://www.youtube.com/mcskizzleman   ►SPECIAL THANKS TO \"Imp&Skizz Podcast\" jingle by Richard Thornton: @RichardThornton  Podcast Logo by jsonlart: https://twitter.com/jasonlicariart  ",
            "duration_ms": 5000256,
            "explicit": false,
            "external_urls": {
                "spotify": "https://open.spotify.com/episode/5ZgG8spNUTgqbN4rfgmcCy"
            },
            "href": "https://api.spotify.com/v1/episodes/5ZgG8spNUTgqbN4rfgmcCy",
            "html_description": "<p>PearlescentMoon On The Show! | Imp And Skizz Podcast (Ep115)<br/>Check out Pearl&#39;s Socials!<br/>YouTube: https://www.youtube.com/&#64;UC1GJ5aeqpEWklMBQ3oXrPQQ <br/>Twitter: https://x.com/PearlescentMoon<br/>Twitch: https://www.twitch.tv/pearlescentmoon<br/>►Get Imp &amp; Skizz Podcast Merch! - https://impandskizz.com<br/>►Want to be a part of the live pre-show? Become a sponsor over at Glimpse to join us before we jump into our recording. Hang out with us while we dial in our equipment and be the first to find out what that day&#39;s recordings are going to be about! Perhaps even offer some of your own insight before we get started!<br/>https://www.glimpse.me/impandskizz<br/>►Listen to this podcast on all major podcast platforms:<br/>https://www.buzzsprout.com/2030783/15245640<br/>►Subscribe to the new Imp And Skizz Podcast channel on YouTube: https://www.youtube.com/channel/UCenRWz4J0b46-z41N-nly1A<br/>►OUR LINKS!<br/>Imp And Skizz YouTube Channel: https://www.youtube.com/impandskizz<br/>Imp And Skizz Instagram: https://www.instagram.com/imp.and.skizz/<br/>Imp And Skizz Twitter: https://twitter.com/impandskizz<br/>Impulse&#39;s YouTube Channel: https://www.youtube.com/impulsesv<br/>Skizzleman&#39;s YouTube Channel: https://www.youtube.com/mcskizzleman<br/>►SPECIAL THANKS TO<br/>&#34;Imp&amp;Skizz Podcast&#34; jingle by Richard Thornton: &#64;RichardThornton <br/>Podcast Logo by jsonlart: https://twitter.com/jasonlicariart<br/></p>",
            "id": "5ZgG8spNUTgqbN4rfgmcCy",
            "images": [
                {
                    "height": 640,
                    "url": "https://i.scdn.co/image/ab6765630000ba8a11dcdcdac4836ef09db5f3c7",
                    "width": 640
                },
                {
                    "height": 300,
                    "url": "https://i.scdn.co/image/ab67656300005f1f11dcdcdac4836ef09db5f3c7",
                    "width": 300
                },
                {
                    "height": 64,
                    "url": "https://i.scdn.co/image/ab6765630000f68d11dcdcdac4836ef09db5f3c7",
                    "width": 64
                }
            ],
            "is_externally_hosted": false,
            "is_playable": true,
            "language": "en",
            "languages": [
                "en"
            ],
            "name": "PearlescentMoon On The Show!",
            "release_date": "2024-10-18",
            "release_date_precision": "day",
            "type": "episode",
            "uri": "spotify:episode:5ZgG8spNUTgqbN4rfgmcCy"
        },
        {
            "audio_preview_url": "https://podz-content.spotifycdn.com/audio/clips/4KVSHDEiBVIqfuQGyNsxHW/clip_2454050_2501700.mp3",
            "description": " Spending Some Time With The Spawn Chunks!   Check out more of The Spawn Chunks: Spawn Chunks Podcast: https://www.youtube.com/@UCCeQNnK-9k1jmIa9FkYDM5w Pixlriffs YT: https://www.youtube.com/ @Pixlriffs  Pix Twitter:  @Pixlriffs  Joel Twitter:  @JoelDuggan    ►Get Imp & Skizz Podcast Merch! - https://impandskizz.com  ►Want to be a part of the live pre-show? Become a sponsor over at Glimpse to join us before we jump into our recording. Hang out with us while we dial in our equipment and be the first to find out what that day's recordings are going to be about! Perhaps even offer some of your own insight before we get started! https://www.glimpse.me/impandskizz  ►Listen to this podcast on all major podcast platforms: https://www.buzzsprout.com/2030783/15245640  ►Subscribe to the new Imp And Skizz Podcast channel on YouTube: https://www.youtube.com/channel/UCenRWz4J0b46-z41N-nly1A  ►OUR LINKS! Imp And Skizz YouTube Channel: https://www.youtube.com/impandskizz Imp And Skizz Instagram: https://www.instagram.com/imp.and.skizz/ Imp And Skizz Twitter: https://twitter.com/impandskizz Impulse's YouTube Channel: https://www.youtube.com/impulsesv Skizzleman's YouTube Channel: https://www.youtube.com/mcskizzleman   ►SPECIAL THANKS TO \"Imp&Skizz Podcast\" jingle by Richard Thornton: @RichardThornton  Podcast Logo by jsonlart: https://twitter.com/jasonlicariart  ",
            "duration_ms": 5569920,
            "explicit": false,
            "external_urls": {
                "spotify": "https://open.spotify.com/episode/2onvN9UTZ9TxkuQciccKe2"
            },
            "href": "https://api.spotify.com/v1/episodes/2onvN9UTZ9TxkuQciccKe2",
            "html_description": "<p><br/>Spending Some Time With The Spawn Chunks! <br/>Check out more of The Spawn Chunks: Spawn Chunks Podcast: https://www.youtube.com/&#64;UCCeQNnK-9k1jmIa9FkYDM5w Pixlriffs YT: https://www.youtube.com/<a href=\"https://studio.youtube.com/channel/UCgGjBqZZtAjxfpGSba7d6ww\" rel=\"nofollow\"> &#64;Pixlriffs </a> Pix Twitter: <a href=\"https://studio.youtube.com/channel/UCgGjBqZZtAjxfpGSba7d6ww\" rel=\"nofollow\"> &#64;Pixlriffs </a> Joel Twitter: <a href=\"https://studio.youtube.com/channel/UCaiBWbuqJCjjRA-mYPaCaTA\" rel=\"nofollow\"> &#64;JoelDuggan </a> <br/>►Get Imp &amp; Skizz Podcast Merch! - https://impandskizz.com<br/>►Want to be a part of the live pre-show? Become a sponsor over at Glimpse to join us before we jump into our recording. Hang out with us while we dial in our equipment and be the first to find out what that day&#39;s recordings are going to be about! Perhaps even offer some of your own insight before we get started!<br/>https://www.glimpse.me/impandskizz<br/>►Listen to this podcast on all major podcast platforms:<br/>https://www.buzzsprout.com/2030783/15245640<br/>►Subscribe to the new Imp And Skizz Podcast channel on YouTube: https://www.youtube.com/channel/UCenRWz4J0b46-z41N-nly1A<br/>►OUR LINKS!<br/>Imp And Skizz YouTube Channel: https://www.youtube.com/impandskizz<br/>Imp And Skizz Instagram: https://www.instagram.com/imp.and.skizz/<br/>Imp And Skizz Twitter: https://twitter.com/impandskizz<br/>Impulse&#39;s YouTube Channel: https://www.youtube.com/impulsesv<br/>Skizzleman&#39;s YouTube Channel: https://www.youtube.com/mcskizzleman<br/>►SPECIAL THANKS TO<br/>&#34;Imp&amp;Skizz Podcast&#34; jingle by Richard Thornton: &#64;RichardThornton <br/>Podcast Logo by jsonlart: https://twitter.com/jasonlicariart<br/></p>",
            "id": "2onvN9UTZ9TxkuQciccKe2",
            "images": [
                {
                    "height": 640,
                    "url": "https://i.scdn.co/image/ab6765630000ba8a11dcdcdac4836ef09db5f3c7",
                    "width": 640
                },
                {
                    "height": 300,
                    "url": "https://i.scdn.co/image/ab67656300005f1f11dcdcdac4836ef09db5f3c7",
                    "width": 300
                },
                {
                    "height": 64,
                    "url": "https://i.scdn.co/image/ab6765630000f68d11dcdcdac4836ef09db5f3c7",
                    "width": 64
                }
            ],
            "is_externally_hosted": false,
            "is_playable": true,
            "language": "en",
            "languages": [
                "en"
            ],
            "name": "Talking With The SpawnChunks Podcast! ",
            "release_date": "2024-10-11",
            "release_date_precision": "day",
            "type": "episode",
            "uri": "spotify:episode:2onvN9UTZ9TxkuQciccKe2"
        },
        {
            "audio_preview_url": "https://podz-content.spotifycdn.com/audio/clips/36bSFW9AxgIdvVNEXOiZkd/clip_628377_688377.mp3",
            "description": " Let's talk about some of our favorite artists and why.   ►Get Imp & Skizz Podcast Merch! - https://impandskizz.comAnimated Shorts\"Inventions\": https://www.youtube.com/watch?v=o2pK3L0b_O8&list=PLt673TcEuoVyvLqRlxWR9bx_OP5Hr1gl9\"The Hunt\": https://www.youtube.com/watch?v=q_0QW8MHrE0&list=PLt673TcEuoVyvLqRlxWR9bx_OP5Hr1gl9&index=2\"Work Hard. Play Hard.\": https://www.youtube.com/watch?v=JNDh4f4E3Ws&list=PLt673TcEuoVyvLqRlxWR9bx_OP5Hr1gl9&index=3Rusty Courage's \"Skizz Torments Tango\" video: https://www.youtube.com/watch?v=nJCKl4f6T7Y  ►Want to be a part of the live pre-show? Become a sponsor over at Glimpse to join us before we jump into our recording. Hang out with us while we dial in our equipment and be the first to find out what that day's recordings are going to be about! Perhaps even offer some of your own insight before we get started! https://www.glimpse.me/impandskizz  ►Listen to this podcast on all major podcast platforms: https://www.buzzsprout.com/2030783/15245640  ►Subscribe to the new Imp And Skizz Podcast channel on YouTube: https://www.youtube.com/channel/UCenRWz4J0b46-z41N-nly1A  ►OUR LINKS! Imp And Skizz YouTube Channel: https://www.youtube.com/impandskizz Imp And Skizz Instagram: https://www.instagram.com/imp.and.skizz/ Imp And Skizz Twitter: https://twitter.com/impandskizz Impulse's YouTube Channel: https://www.youtube.com/impulsesv Skizzleman's YouTube Channel: https://www.youtube.com/mcskizzleman   ►SPECIAL THANKS TO \"Imp&Skizz Podcast\" jingle by Richard Thornton: @RichardThornton  Podcast Logo by jsonlart: https://twitter.com/jasonlicariart  ",
            "duration_ms": 4178645,
            "explicit": false,
            "external_urls": {
                "spotify": "https://open.spotify.com/episode/3a7aJfTXDQCXLBpdB4ICnl"
            },
            "href": "https://api.spotify.com/v1/episodes/3a7aJfTXDQCXLBpdB4ICnl",
            "html_description": "<p><br/>Let&#39;s talk about some of our favorite artists and why. <br/>►Get Imp &amp; Skizz Podcast Merch! - https://impandskizz.comAnimated Shorts&#34;Inventions&#34;: https://www.youtube.com/watch?v&#61;o2pK3L0b_O8&amp;list&#61;PLt673TcEuoVyvLqRlxWR9bx_OP5Hr1gl9&#34;The Hunt&#34;: https://www.youtube.com/watch?v&#61;q_0QW8MHrE0&amp;list&#61;PLt673TcEuoVyvLqRlxWR9bx_OP5Hr1gl9&amp;index&#61;2&#34;Work Hard. Play Hard.&#34;: https://www.youtube.com/watch?v&#61;JNDh4f4E3Ws&amp;list&#61;PLt673TcEuoVyvLqRlxWR9bx_OP5Hr1gl9&amp;index&#61;3Rusty Courage&#39;s &#34;Skizz Torments Tango&#34; video: https://www.youtube.com/watch?v&#61;nJCKl4f6T7Y<br/>►Want to be a part of the live pre-show? Become a sponsor over at Glimpse to join us before we jump into our recording. Hang out with us while we dial in our equipment and be the first to find out what that day&#39;s recordings are going to be about! Perhaps even offer some of your own insight before we get started!<br/>https://www.glimpse.me/impandskizz<br/>►Listen to this podcast on all major podcast platforms:<br/>https://www.buzzsprout.com/2030783/15245640<br/>►Subscribe to the new Imp And Skizz Podcast channel on YouTube: https://www.youtube.com/channel/UCenRWz4J0b46-z41N-nly1A<br/>►OUR LINKS!<br/>Imp And Skizz YouTube Channel: https://www.youtube.com/impandskizz<br/>Imp And Skizz Instagram: https://www.instagram.com/imp.and.skizz/<br/>Imp And Skizz Twitter: https://twitter.com/impandskizz<br/>Impulse&#39;s YouTube Channel: https://www.youtube.com/impulsesv<br/>Skizzleman&#39;s YouTube Channel: https://www.youtube.com/mcskizzleman<br/>►SPECIAL THANKS TO<br/>&#34;Imp&amp;Skizz Podcast&#34; jingle by Richard Thornton: &#64;RichardThornton <br/>Podcast Logo by jsonlart: https://twitter.com/jasonlicariart<br/></p>",
            "id": "3a7aJfTXDQCXLBpdB4ICnl",
            "images": [
                {
                    "height": 640,
                    "url": "https://i.scdn.co/image/ab6765630000ba8a11dcdcdac4836ef09db5f3c7",
                    "width": 640
                },
                {
                    "height": 300,
                    "url": "https://i.scdn.co/image/ab67656300005f1f11dcdcdac4836ef09db5f3c7",
                    "width": 300
                },
                {
                    "height": 64,
                    "url": "https://i.scdn.co/image/ab6765630000f68d11dcdcdac4836ef09db5f3c7",
                    "width": 64
                }
            ],
            "is_externally_hosted": false,
            "is_playable": true,
            "language": "en",
            "languages": [
                "en"
            ],
            "name": "Artists And Their Influence ",
            "release_date": "2024-10-04",
            "release_date_precision": "day",
            "type": "episode",
            "uri": "spotify:episode:3a7aJfTXDQCXLBpdB4ICnl"
        },
        {
            "audio_preview_url": "https://podz-content.spotifycdn.com/audio/clips/4lAQXJZuJT4UtLlENtRezz/clip_413027_473027.mp3",
            "description": " We get together with a group of our friends at the VRBO we stayed in to recap our TwitchCon experience. From MCC, to the Panel, to the fan meet up, we cover it all. What a great time it was.   ►Get Imp & Skizz Podcast Merch! - https://impandskizz.com  ►Want to be a part of the live pre-show? Become a sponsor over at Glimpse to join us before we jump into our recording. Hang out with us while we dial in our equipment and be the first to find out what that day's recordings are going to be about! Perhaps even offer some of your own insight before we get started! https://www.glimpse.me/impandskizz  ►Listen to this podcast on all major podcast platforms: https://www.buzzsprout.com/2030783/15245640  ►Subscribe to the new Imp And Skizz Podcast channel on YouTube: https://www.youtube.com/channel/UCenRWz4J0b46-z41N-nly1A  ►OUR LINKS! Imp And Skizz YouTube Channel: https://www.youtube.com/impandskizz Imp And Skizz Instagram: https://www.instagram.com/imp.and.skizz/ Imp And Skizz Twitter: https://twitter.com/impandskizz Impulse's YouTube Channel: https://www.youtube.com/impulsesv Skizzleman's YouTube Channel: https://www.youtube.com/mcskizzleman   ►SPECIAL THANKS TO \"Imp&Skizz Podcast\" jingle by Richard Thornton: @RichardThornton  Podcast Logo by jsonlart: https://twitter.com/jasonlicariart  ",
            "duration_ms": 2405418,
            "explicit": false,
            "external_urls": {
                "spotify": "https://open.spotify.com/episode/7MMWemQwSpz7Ec9yx2skpi"
            },
            "href": "https://api.spotify.com/v1/episodes/7MMWemQwSpz7Ec9yx2skpi",
            "html_description": "<p><br/>We get together with a group of our friends at the VRBO we stayed in to recap our TwitchCon experience. From MCC, to the Panel, to the fan meet up, we cover it all. What a great time it was. <br/>►Get Imp &amp; Skizz Podcast Merch! - https://impandskizz.com<br/>►Want to be a part of the live pre-show? Become a sponsor over at Glimpse to join us before we jump into our recording. Hang out with us while we dial in our equipment and be the first to find out what that day&#39;s recordings are going to be about! Perhaps even offer some of your own insight before we get started!<br/>https://www.glimpse.me/impandskizz<br/>►Listen to this podcast on all major podcast platforms:<br/>https://www.buzzsprout.com/2030783/15245640<br/>►Subscribe to the new Imp And Skizz Podcast channel on YouTube: https://www.youtube.com/channel/UCenRWz4J0b46-z41N-nly1A<br/>►OUR LINKS!<br/>Imp And Skizz YouTube Channel: https://www.youtube.com/impandskizz<br/>Imp And Skizz Instagram: https://www.instagram.com/imp.and.skizz/<br/>Imp And Skizz Twitter: https://twitter.com/impandskizz<br/>Impulse&#39;s YouTube Channel: https://www.youtube.com/impulsesv<br/>Skizzleman&#39;s YouTube Channel: https://www.youtube.com/mcskizzleman<br/>►SPECIAL THANKS TO<br/>&#34;Imp&amp;Skizz Podcast&#34; jingle by Richard Thornton: &#64;RichardThornton <br/>Podcast Logo by jsonlart: https://twitter.com/jasonlicariart<br/></p>",
            "id": "7MMWemQwSpz7Ec9yx2skpi",
            "images": [
                {
                    "height": 640,
                    "url": "https://i.scdn.co/image/ab6765630000ba8a11dcdcdac4836ef09db5f3c7",
                    "width": 640
                },
                {
                    "height": 300,
                    "url": "https://i.scdn.co/image/ab67656300005f1f11dcdcdac4836ef09db5f3c7",
                    "width": 300
                },
                {
                    "height": 64,
                    "url": "https://i.scdn.co/image/ab6765630000f68d11dcdcdac4836ef09db5f3c7",
                    "width": 64
                }
            ],
            "is_externally_hosted": false,
            "is_playable": true,
            "language": "en",
            "languages": [
                "en"
            ],
            "name": "TwitchCon Recap",
            "release_date": "2024-09-27",
            "release_date_precision": "day",
            "type": "episode",
            "uri": "spotify:episode:7MMWemQwSpz7Ec9yx2skpi"
        }
    ],
    "limit": 5,
    "next": "https://api.spotify.com/v1/shows/1EPoDsUI8BnhLbdERd5Y4w/episodes?offset=5&limit=5",
    "offset": 0,
    "previous": null,
    "total": 117
}